…
### 2.9 Cleaning DyadDistance
* Before looking at the NA's of Dyaddistance I will remove the "m" that is in front of every number to      have a numerical variable
* Then I will look at the location of the NA's in the data to treat them case by case.



```
## Warning: NAs introduits lors de la conversion automatique
```

```
## # A tibble: 69 × 16
##    Time     Date                Group    MaleID FemaleID FemaleCorn DyadDistance
##    <chr>    <dttm>              <chr>    <chr>  <chr>         <dbl>        <dbl>
##  1 12:09:34 2022-09-27 00:00:00 Baie Da… Xia    Piep              7           NA
##  2 12:13:28 2022-09-27 00:00:00 Baie Da… Xia    Piep              7           NA
##  3 16:02:32 2022-09-15 00:00:00 Ankhase  Sho    Ginq              6           NA
##  4 10:46:33 2023-08-17 00:00:00 Baie Da… Xia    Piep              0           NA
##  5 09:30:17 2023-07-29 00:00:00 Baie Da… Xin    Ouli              0           NA
##  6 12:08:51 2023-07-11 00:00:00 Baie Da… Xia    Piep              0           NA
##  7 13:30:07 2023-06-29 00:00:00 Baie Da… Sey    Sirk              0           NA
##  8 09:54:24 2023-06-27 00:00:00 Ankhase  Sho    Ginq              0           NA
##  9 10:13:56 2023-06-23 00:00:00 Ankhase  Sho    Ginq              0           NA
## 10 09:39:04 2023-06-15 00:00:00 Ankhase  Sho    Ginq              2           NA
## # ℹ 59 more rows
## # ℹ 9 more variables: DyadResponse <chr>, OtherResponse <chr>, Audience <chr>,
## #   IDIndividual1 <chr>, IntruderID <chr>, Remarks <chr>, MaleCorn <dbl>,
## #   Intrusion <dbl>, AmountAudience <dbl>
## Number of NA values in DyadDistance column (using second approach): 69 
## Rows with NA values in DyadDistance column: 24, 27, 95, 492, 744, 971, 1113, 1130, 1164, 1261, 1341, 1396, 1491, 1583, 1683, 1693, 1717, 1718, 1719, 1724, 1725, 1739, 1755, 1756, 1757, 1764, 1779, 1782, 1792, 1799, 1800, 1840, 1841, 1868, 1869, 1888, 1891, 1892, 1896, 1911, 1912, 1915, 1918, 1919, 1952, 1953, 1958, 1980, 1981, 1984, 1986, 1996, 2000, 2009, 2054, 2104, 2105, 2191, 2233, 2234, 2287, 2437, 2569, 2579, 2580, 2643, 2676, 2709, 2729
```
…
* In order to clean FemaleID, I will use the data from the now complete MaleID. I will use conditions stating that depending which name is found in MaleID when there is an NA in FemaleID, a certain name will have to replace the NA in female ID


* Before automating the process I will check manually the data to see if they are any exceptions or mistakes


```
## Rows with missing values in FemaleID:
```

```
## # A tibble: 41 × 16
##    Time     Date                Group   MaleID FemaleID FemaleCorn DyadDistance
##    <chr>    <dttm>              <chr>   <chr>  <chr>         <dbl>        <dbl>
##  1 09:31:55 2023-07-22 00:00:00 Ankhase Buk    <NA>              7            1
##  2 09:33:14 2023-07-22 00:00:00 Ankhase Buk    <NA>              7            1
##  3 09:34:07 2023-07-22 00:00:00 Ankhase Buk    <NA>              7            0
##  4 09:34:51 2023-07-22 00:00:00 Ankhase Buk    <NA>              7            0
##  5 09:36:59 2023-07-22 00:00:00 Ankhase Buk    <NA>              7            0
##  6 09:38:13 2023-07-22 00:00:00 Ankhase Buk    <NA>              7            1
##  7 09:39:26 2023-07-22 00:00:00 Ankhase Buk    <NA>              7            0
##  8 09:41:11 2023-07-22 00:00:00 Ankhase Buk    <NA>              0            0
##  9 09:42:17 2023-07-22 00:00:00 Ankhase Buk    <NA>              0            0
## 10 09:44:06 2023-07-22 00:00:00 Ankhase Buk    <NA>              0            1
## # ℹ 31 more rows
## # ℹ 9 more variables: DyadResponse <chr>, OtherResponse <chr>, Audience <chr>,
## #   IDIndividual1 <chr>, IntruderID <chr>, Remarks <chr>, MaleCorn <dbl>,
## #   Intrusion <dbl>, AmountAudience <dbl>
```
…
